0 -0.138433 -0.022567 -0.00506003
1 -0.0692163 -0.0112835 -0.00253001
3 0.069859 0.0110522 0.00218982
4 0.143574 0.0207166 0.00233851
6 0.317996 0.0303308 -0.0116521
7 0.426416 0.0275049 -0.0298737
9 0.702275 0.00121745 -0.0960902
10 0.861371 -0.0156046 -0.130858
12 1.16358 -0.0180377 -0.130256
13 1.28229 0.012406 -0.06435
15 1.41939 0.155677 0.240485
16 1.44839 0.255582 0.462474
18 1.46178 0.473041 0.992451
19 1.45996 0.575039 1.27918
21 1.47074 0.729112 1.84383
22 1.47893 0.780217 2.10554
24 1.44739 0.862173 2.559
25 1.38843 0.904627 2.73974
27 1.20191 0.982245 2.98447
28 1.09227 1.00687 3.03903
30 0.882925 1.00376 2.99647
31 0.788428 0.979617 2.93535
33 0.603166 0.928074 2.92952
34 0.504905 0.918391 3.06624
36 0.291724 0.948887 -2.5864
37 0.187649 0.970206 -2.18413
39 0.01581 0.969521 -1.47376
40 -0.039441 0.925332 -1.27294
42 -0.074982 0.728324 -1.2951
43 -0.0670381 0.600792 -1.41485
45 -0.034655 0.36168 -1.5658
46 -0.0228539 0.276403 -1.48848
48 -0.0135921 0.175819 -1.02701
49 -0.0140829 0.150516 -0.686704
