2 0.000000 0.000000 0.000000
8 0.554115 0.017740 -0.058301
13 1.282289 0.012406 -0.064350
20 1.461659 0.662178 1.566238
24 1.447391 0.862173 2.559003
29 0.983664 1.015014 3.042073
34 0.504905 0.918391 3.066244
40 -0.039441 0.925332 -1.272936
45 -0.034655 0.361680 -1.565802
51 -0.020186 0.124899 0.103493
