2 0.000000 0.000000 0.000000
2 0.000000 0.000000 0.000000
2 0.000000 0.000000 0.000000
2 0.000000 0.000000 0.000000
2 0.000000 0.000000 0.000000
2 0.000000 0.000000 0.000000
2 0.000000 0.000000 0.000000
2 0.000000 0.000000 0.000000
2 0.000000 0.000000 0.000000
2 0.000000 0.000000 0.000000
2 0.000000 0.000000 0.000000
2 0.000000 0.000000 0.000000
3 0.000000 0.000000 0.000000
3 0.000000 0.000000 0.000000
3 0.000000 0.000000 0.000000
3 0.000000 0.000000 0.000000
3 0.000000 0.000000 0.000000
3 0.000000 0.000000 0.000000
3 0.000000 0.000000 0.000000
3 0.000000 0.000000 0.000000
3 0.000000 0.000000 0.000000
3 0.000000 0.000000 0.000000
3 0.000000 0.000000 0.000000
3 0.000000 0.000000 0.000000
3 0.000000 0.000000 0.000000
3 0.000000 0.000000 0.000000
3 0.000000 0.000000 0.000000
3 0.000000 0.000000 0.000000
3 0.000000 0.000000 0.000000
3 0.000000 0.000000 0.000000
3 0.000000 0.000000 0.000000
3 0.000000 0.000000 0.000000
3 0.000000 0.000000 0.000000
4 0.000000 0.000000 0.000000
4 0.000000 0.000000 0.000000
4 0.000000 0.000000 0.000000
4 0.000000 0.000000 0.000000
4 0.000000 0.000000 0.000000
4 0.000000 0.000000 0.000000
4 0.000000 0.000000 0.000000
4 0.000000 0.000000 0.000000
4 0.000000 0.000000 0.000000
4 0.000000 0.000000 0.000000
4 0.000000 0.000000 0.000000
4 0.000000 0.000000 0.000000
4 0.000000 0.000000 0.000000
4 0.000000 0.000000 0.000000
4 0.000000 0.000000 0.000000
4 0.000000 0.000000 0.000000
4 0.000000 0.000000 0.000000
4 0.000000 0.000000 0.000000
4 0.000000 0.000000 0.000000
4 0.000000 0.000000 0.000000
5 0.000000 0.000000 0.000000
5 0.000000 0.000000 0.000000
5 0.000000 0.000000 0.000000
5 0.000000 0.000000 0.000000
5 0.000000 0.000000 0.000000
5 0.000000 0.000000 0.000000
5 0.000000 0.000000 0.000000
5 0.000000 0.000000 0.000000
5 0.000000 0.000000 0.000000
5 0.000000 0.000000 0.000000
5 0.000000 0.000000 0.000000
5 0.000000 0.000000 0.000000
5 0.000000 0.000000 0.000000
5 0.000000 0.000000 0.000000
5 0.000000 0.000000 0.000000
5 0.000000 0.000000 0.000000
5 0.000000 0.000000 0.000000
5 0.000000 0.000000 0.000000
5 0.000000 0.000000 0.000000
5 0.000000 0.000000 0.000000
5 0.000000 0.000000 0.000000
6 0.000000 0.000000 0.000000
6 0.000000 0.000000 0.000000
6 0.000000 0.000000 0.000000
6 0.000000 0.000000 0.000000
6 0.000000 0.000000 0.000000
6 0.000000 0.000000 0.000000
6 0.000000 0.000000 0.000000
6 0.000000 0.000000 0.000000
6 0.000000 0.000000 0.000000
6 0.000000 0.000000 0.000000
6 0.000000 0.000000 0.000000
6 0.000000 0.000000 0.000000
6 0.000000 0.000000 0.000000
6 0.000000 0.000000 0.000000
6 0.000768 0.000000 0.000000
6 0.001024 0.000000 0.000000
6 0.002346 0.000000 -0.001047
6 0.003753 -0.000001 -0.001745
6 0.005928 -0.000005 -0.001571
7 0.008657 -0.000010 -0.002094
7 0.009851 -0.000012 -0.002443
7 0.014073 -0.000022 -0.004014
7 0.019830 -0.000045 -0.005585
7 0.021963 -0.000057 -0.005061
7 0.030151 -0.000099 -0.003142
7 0.041750 -0.000135 -0.003491
7 0.049981 -0.000164 -0.002269
7 0.059619 -0.000185 -0.002269
7 0.068788 -0.000206 -0.002443
7 0.077914 -0.000228 -0.001571
7 0.087040 -0.000243 -0.002618
7 0.090068 -0.000251 -0.002443
7 0.099109 -0.000273 -0.002443
7 0.102265 -0.000281 -0.001920
7 0.111306 -0.000298 -0.002967
7 0.114462 -0.000307 -0.003142
7 0.123545 -0.000336 -0.003491
7 0.132927 -0.000369 -0.003316
8 0.142139 -0.000399 -0.003491
8 0.151606 -0.000432 -0.003840
8 0.160860 -0.000468 -0.004189
8 0.164144 -0.000481 -0.004189
8 0.173611 -0.000521 -0.005236
8 0.182951 -0.000570 -0.005934
8 0.186234 -0.000589 -0.006458
8 0.195701 -0.000651 -0.006632
8 0.198772 -0.000671 -0.006981
8 0.208069 -0.000736 -0.007679
8 0.210798 -0.000757 -0.007679
8 0.219881 -0.000827 -0.007679
8 0.227984 -0.000889 -0.007505
8 0.235446 -0.000945 -0.008378
8 0.242227 -0.001002 -0.007854
8 0.244530 -0.001020 -0.007330
8 0.250969 -0.001067 -0.006807
8 0.257494 -0.001111 -0.008203
8 0.259797 -0.001130 -0.008203
8 0.266961 -0.001189 -0.007330
8 0.274466 -0.001244 -0.008378
9 0.283209 -0.001317 -0.008378
9 0.292292 -0.001393 -0.007505
9 0.301674 -0.001464 -0.008727
9 0.311482 -0.001549 -0.007854
9 0.314808 -0.001576 -0.007854
9 0.321162 -0.001625 -0.008203
9 0.331269 -0.001708 -0.008378
9 0.334553 -0.001736 -0.008552
9 0.344318 -0.001819 -0.009599
9 0.354041 -0.001913 -0.009599
9 0.363935 -0.002008 -0.009774
9 0.373828 -0.002104 -0.009774
9 0.383679 -0.002201 -0.009948
9 0.393743 -0.002301 -0.010472
9 0.403593 -0.002404 -0.011345
9 0.413700 -0.002519 -0.012217
9 0.416983 -0.002559 -0.012392
9 0.427090 -0.002684 -0.013090
9 0.437153 -0.002816 -0.013439
9 0.440522 -0.002861 -0.013439
10 0.450628 -0.002997 -0.013265
10 0.460607 -0.003129 -0.013963
10 0.470499 -0.003267 -0.012741
10 0.480648 -0.003397 -0.012915
10 0.493868 -0.003567 -0.012915
10 0.503846 -0.003696 -0.013265
10 0.507215 -0.003741 -0.013265
10 0.517321 -0.003875 -0.012566
10 0.520647 -0.003917 -0.012392
10 0.530711 -0.004041 -0.012392
10 0.540988 -0.004169 -0.011694
10 0.551222 -0.004289 -0.012043
10 0.561456 -0.004412 -0.012741
10 0.571690 -0.004542 -0.012915
10 0.582053 -0.004676 -0.013439
10 0.585421 -0.004721 -0.013439
10 0.595783 -0.004861 -0.013090
10 0.606060 -0.004995 -0.013439
10 0.609514 -0.005042 -0.013614
11 0.619962 -0.005184 -0.014312
11 0.630579 -0.005336 -0.014312
11 0.640899 -0.005483 -0.014137
11 0.651516 -0.005634 -0.014312
11 0.661964 -0.005783 -0.015010
11 0.665545 -0.005837 -0.014835
11 0.676078 -0.005993 -0.015184
11 0.686354 -0.006149 -0.015010
11 0.696802 -0.006306 -0.013788
11 0.707377 -0.006452 -0.014312
11 0.717696 -0.006599 -0.014137
11 0.728143 -0.006747 -0.014835
11 0.738590 -0.006902 -0.014661
11 0.749080 -0.007056 -0.014835
11 0.752577 -0.007108 -0.014661
11 0.763109 -0.007262 -0.014312
11 0.773215 -0.007407 -0.014835
11 0.776328 -0.007453 -0.015010
11 0.785880 -0.007596 -0.015359
12 0.788651 -0.007639 -0.015184
12 0.797734 -0.007777 -0.015533
12 0.800676 -0.007823 -0.015359
12 0.808053 -0.007936 -0.014835
12 0.815601 -0.008048 -0.015184
12 0.822167 -0.008148 -0.016057
12 0.824640 -0.008187 -0.015882
12 0.830098 -0.008274 -0.016581
12 0.835898 -0.008370 -0.016930
12 0.837262 -0.008393 -0.016930
12 0.841526 -0.008466 -0.016581
12 0.842933 -0.008489 -0.016755
12 0.846600 -0.008550 -0.017104
12 0.847965 -0.008574 -0.016755
12 0.850523 -0.008617 -0.016755
12 0.853209 -0.008662 -0.017453
12 0.854830 -0.008690 -0.016930
12 0.855469 -0.008701 -0.017802
12 0.855682 -0.008704 -0.018500
12 0.855768 -0.008706 -0.017977
12 0.856109 -0.008712 -0.018151
13 0.856237 -0.008715 -0.018675
13 0.856962 -0.008728 -0.020071
13 0.857388 -0.008737 -0.020595
13 0.858923 -0.008768 -0.020420
13 0.861183 -0.008814 -0.022864
13 0.864039 -0.008880 -0.023562
13 0.864935 -0.008901 -0.023213
13 0.869155 -0.008999 -0.023562
13 0.872396 -0.009075 -0.024958
13 0.876616 -0.009181 -0.026354
13 0.878151 -0.009221 -0.026354
13 0.881689 -0.009314 -0.027402
13 0.886421 -0.009444 -0.027576
13 0.891622 -0.009587 -0.028274
13 0.897420 -0.009751 -0.028623
13 0.904070 -0.009942 -0.027402
13 0.906414 -0.010006 -0.026878
13 0.913619 -0.010200 -0.027576
13 0.924490 -0.010500 -0.027925
14 0.932078 -0.010712 -0.027227
14 0.939112 -0.010904 -0.027925
14 0.941115 -0.010960 -0.027925
14 0.947723 -0.011144 -0.027402
14 0.953435 -0.011301 -0.026704
14 0.955098 -0.011345 -0.027402
14 0.963325 -0.011571 -0.027053
14 0.969890 -0.011748 -0.028274
14 0.977052 -0.011951 -0.028623
14 0.979269 -0.012014 -0.028798
14 0.987965 -0.012265 -0.027925
14 0.990779 -0.012343 -0.028100
14 0.999731 -0.012595 -0.029147
14 1.009024 -0.012866 -0.030020
14 1.018828 -0.013160 -0.030543
14 1.022025 -0.013258 -0.030194
14 1.030550 -0.013515 -0.030194
14 1.039843 -0.013796 -0.030194
14 1.048240 -0.014050 -0.030543
14 1.056808 -0.014312 -0.031416
15 1.059621 -0.014400 -0.031590
15 1.069169 -0.014702 -0.031940
15 1.078546 -0.015001 -0.031765
15 1.088606 -0.015321 -0.031241
15 1.098367 -0.015626 -0.031590
15 1.108171 -0.015936 -0.032114
15 1.117889 -0.016248 -0.032987
15 1.127564 -0.016567 -0.032289
15 1.139712 -0.016959 -0.032114
15 1.148067 -0.017227 -0.031590
15 1.156591 -0.017496 -0.031067
15 1.165244 -0.017765 -0.032289
15 1.174750 -0.018072 -0.031067
15 1.184340 -0.018370 -0.031765
15 1.194613 -0.018697 -0.031940
15 1.204502 -0.019013 -0.032463
15 1.214476 -0.019337 -0.032812
16 1.217672 -0.019442 -0.032638
16 1.227646 -0.019767 -0.032812
16 1.237066 -0.020076 -0.033685
16 1.240007 -0.020175 -0.033510
16 1.248403 -0.020457 -0.032987
16 1.256971 -0.020740 -0.033859
16 1.265367 -0.021024 -0.034034
16 1.274616 -0.021339 -0.035605
16 1.284333 -0.021685 -0.037874
16 1.294305 -0.022063 -0.038746
16 1.297842 -0.022200 -0.038572
16 1.308197 -0.022600 -0.038397
16 1.318595 -0.022999 -0.038921
16 1.321876 -0.023127 -0.039270
16 1.332231 -0.023534 -0.039619
16 1.341436 -0.023899 -0.039270
16 1.351152 -0.024280 -0.038397
16 1.360186 -0.024627 -0.038572
16 1.369391 -0.024983 -0.038048
16 1.372288 -0.025093 -0.037874
17 1.382260 -0.025471 -0.037874
17 1.392147 -0.025845 -0.037699
17 1.395769 -0.025982 -0.037001
17 1.405912 -0.026358 -0.037350
17 1.416481 -0.026752 -0.037001
17 1.419805 -0.026875 -0.037176
17 1.430332 -0.027267 -0.037525
17 1.440261 -0.027640 -0.037699
17 1.450958 -0.028043 -0.038048
17 1.454239 -0.028168 -0.038397
17 1.464722 -0.028571 -0.038572
17 1.474950 -0.028966 -0.038746
17 1.478529 -0.029104 -0.038746
17 1.489098 -0.029514 -0.039444
17 1.492507 -0.029649 -0.039619
17 1.503202 -0.030072 -0.040317
17 1.506654 -0.030212 -0.040317
17 1.517094 -0.030633 -0.040317
17 1.527576 -0.031056 -0.040317
17 1.537845 -0.031470 -0.040317
17 1.540871 -0.031592 -0.040841
17 1.549989 -0.031965 -0.039794
18 1.558256 -0.032294 -0.035779
18 1.566098 -0.032574 -0.026354
18 1.568400 -0.032635 -0.022515
18 1.575307 -0.032791 -0.009425
18 1.581789 -0.032852 0.002793
18 1.587461 -0.032836 0.022864
18 1.592577 -0.032719 0.041539
18 1.596966 -0.032537 0.063879
18 1.598455 -0.032441 0.076969
18 1.603430 -0.032058 0.104720
18 1.608901 -0.031483 0.135088
18 1.611183 -0.031172 0.143466
18 1.617050 -0.030325 0.163363
18 1.624288 -0.029132 0.185005
18 1.626593 -0.028700 0.190590
18 1.634214 -0.027230 0.205076
18 1.642899 -0.025424 0.217817
18 1.651643 -0.023488 0.225147
19 1.663238 -0.020820 0.230907
19 1.670378 -0.019141 0.236841
19 1.677467 -0.017430 0.247313
19 1.679411 -0.016939 0.251676
19 1.685978 -0.015251 0.269304
19 1.687992 -0.014695 0.274715
19 1.692589 -0.013399 0.292692
19 1.694182 -0.012919 0.299498
19 1.697686 -0.011837 0.326900
19 1.698696 -0.011495 0.335278
19 1.702360 -0.010218 0.367043
19 1.706341 -0.008687 0.406313
19 1.710493 -0.006901 0.438252
19 1.711806 -0.006286 0.452215
19 1.717023 -0.003751 0.478744
19 1.722285 -0.001021 0.503004
19 1.728263 0.002269 0.529882
19 1.730066 0.003325 0.535642
19 1.737400 0.007678 0.557982
19 1.739969 0.009281 0.563218
19 1.744945 0.012423 0.569326
19 1.752057 0.016975 0.580147
20 1.759548 0.021884 0.591143
20 1.766452 0.026519 0.599695
20 1.772613 0.030731 0.610516
20 1.778588 0.034912 0.625875
20 1.783151 0.038209 0.646994
20 1.784444 0.039186 0.653626
20 1.788845 0.042557 0.681202
20 1.792125 0.045216 0.709302
20 1.795652 0.048244 0.744034
20 1.799511 0.051796 0.776846
20 1.803586 0.055802 0.804248
20 1.808201 0.060594 0.831649
20 1.812970 0.065826 0.853641
20 1.818352 0.071997 0.873537
20 1.819967 0.073926 0.878250
20 1.825849 0.081016 0.893958
20 1.827745 0.083376 0.897797
20 1.833780 0.090946 0.906524
20 1.835935 0.093699 0.909840
21 1.841512 0.100870 0.916472
21 1.847170 0.108247 0.921534
21 1.852404 0.115142 0.933402
21 1.854358 0.117781 0.937940
21 1.859352 0.124590 0.951379
21 1.860986 0.126882 0.957662
21 1.866802 0.135148 0.969181
21 1.872402 0.143304 0.976686
21 1.874407 0.146273 0.978955
21 1.880236 0.154944 0.984191
21 1.882101 0.157750 0.985064
21 1.887429 0.165781 0.989602
21 1.889115 0.168348 0.991172
21 1.893927 0.175698 0.999550
21 1.898192 0.182335 1.010546
21 1.902068 0.188512 1.024683
21 1.905523 0.194197 1.046848
21 1.909107 0.200401 1.066920
21 1.912340 0.206264 1.094845
21 1.913336 0.208197 1.102001
21 1.917055 0.215540 1.123818
22 1.920723 0.223193 1.142143
22 1.924464 0.231377 1.155233
22 1.928045 0.239493 1.165007
22 1.931041 0.246467 1.174781
22 1.934035 0.253628 1.191013
22 1.936422 0.259609 1.210037
22 1.938710 0.265674 1.233948
22 1.939288 0.267324 1.241278
22 1.940848 0.271884 1.265189
22 1.942272 0.276398 1.299049
22 1.943600 0.281163 1.332035
22 1.945002 0.286923 1.365546
22 1.946340 0.293353 1.390678
22 1.947685 0.300737 1.416160
22 1.948046 0.303054 1.422269
22 1.949296 0.311405 1.439897
22 1.950420 0.319946 1.457699
22 1.950786 0.323167 1.462237
22 1.951839 0.332833 1.475152
23 1.952784 0.342681 1.482483
23 1.953582 0.351687 1.489115
23 1.954316 0.360655 1.498191
23 1.954514 0.363378 1.502728
23 1.954836 0.368100 1.512328
23 1.955259 0.375338 1.533272
23 1.955498 0.381687 1.553343
23 1.955604 0.387785 1.578301
23 1.955592 0.389448 1.586330
23 1.955507 0.394906 1.617048
23 1.955280 0.399805 1.644100
23 1.955133 0.401804 1.653874
23 1.954723 0.406734 1.688781
23 1.953990 0.412917 1.717579
23 1.953036 0.419372 1.746376
23 1.951807 0.426300 1.769415
23 1.950149 0.434536 1.791406
23 1.949561 0.437158 1.796816
23 1.947669 0.445387 1.812001
23 1.946864 0.448659 1.817062
23 1.944629 0.457551 1.830676
24 1.943785 0.460724 1.833817
24 1.941467 0.469331 1.842544
24 1.939075 0.477917 1.848653
24 1.937005 0.485176 1.849874
24 1.934749 0.493047 1.851969
24 1.932311 0.501487 1.857030
24 1.931444 0.504432 1.859997
24 1.928793 0.513343 1.868026
24 1.925733 0.523333 1.873960
24 1.922588 0.533387 1.876578
24 1.921523 0.536762 1.877800
24 1.918198 0.547250 1.880418
24 1.914923 0.557486 1.882861
24 1.911728 0.567389 1.885654
24 1.908612 0.576959 1.888446
24 1.905721 0.585750 1.889843
24 1.903019 0.593930 1.893159
24 1.902182 0.596438 1.895777
24 1.899717 0.603753 1.908692
25 1.897356 0.610472 1.921433
25 1.896609 0.612514 1.925971
25 1.894147 0.619152 1.945169
25 1.893336 0.621216 1.950929
25 1.890615 0.628027 1.966986
25 1.887866 0.634597 1.989326
25 1.886913 0.636741 1.994213
25 1.883391 0.644555 2.010445
25 1.882138 0.647218 2.017077
25 1.878071 0.655720 2.026327
25 1.869041 0.673995 2.036974
25 1.867507 0.677043 2.038021
25 1.862763 0.686448 2.042559
25 1.857782 0.696210 2.047097
25 1.852698 0.706064 2.051635
25 1.848004 0.715063 2.054776
25 1.843201 0.724198 2.058441
25 1.841663 0.727099 2.060187
25 1.837553 0.734815 2.065946
25 1.833480 0.742358 2.078687
26 1.832277 0.744519 2.082701
26 1.828538 0.751174 2.099282
26 1.825183 0.756919 2.120575
26 1.823958 0.758919 2.128254
26 1.821025 0.763624 2.151293
26 1.817236 0.769401 2.180265
26 1.813476 0.774786 2.205573
26 1.808874 0.781035 2.233847
26 1.807351 0.782985 2.240305
26 1.801820 0.789974 2.257234
26 1.796063 0.797000 2.272419
26 1.789594 0.804655 2.282542
26 1.783383 0.811856 2.293014
26 1.777716 0.818288 2.299995
26 1.772204 0.824457 2.313434
26 1.767417 0.829672 2.331934
26 1.762093 0.835261 2.355496
26 1.760285 0.837072 2.362652
26 1.755034 0.842255 2.383073
27 1.748750 0.848210 2.405064
27 1.741990 0.854340 2.420423
27 1.734783 0.860676 2.434036
27 1.726810 0.867494 2.444683
27 1.723900 0.869931 2.449221
27 1.715792 0.876655 2.453235
27 1.707262 0.883672 2.457947
27 1.698699 0.890648 2.461089
27 1.695848 0.892956 2.462485
27 1.687320 0.899840 2.467023
27 1.684355 0.902210 2.468070
27 1.678789 0.906652 2.469466
27 1.669946 0.913689 2.473481
27 1.661677 0.920215 2.475226
27 1.653732 0.926462 2.477669
27 1.651045 0.928565 2.480113
27 1.643877 0.934144 2.485698
27 1.636847 0.939554 2.498264
27 1.630467 0.944338 2.511354
27 1.628193 0.945997 2.516590
28 1.622590 0.950039 2.536312
28 1.620486 0.951495 2.543119
28 1.615447 0.954931 2.564761
28 1.610121 0.958396 2.591290
28 1.608486 0.959400 2.600366
28 1.605342 0.961289 2.627942
28 1.603894 0.962106 2.642428
28 1.600748 0.963821 2.669132
28 1.597521 0.965471 2.700548
28 1.596441 0.965981 2.709798
28 1.592723 0.967694 2.739643
28 1.591349 0.968278 2.749766
28 1.586619 0.970232 2.782404
28 1.581429 0.972181 2.805966
28 1.575389 0.974288 2.829179
28 1.573482 0.974904 2.834938
28 1.566489 0.977118 2.852392
28 1.559213 0.979283 2.868449
28 1.551164 0.981538 2.879793
28 1.542349 0.983900 2.889393
28 1.539252 0.984698 2.891662
28 1.531318 0.986723 2.897945
29 1.522792 0.988843 2.910686
29 1.515112 0.990648 2.922379
29 1.507079 0.992438 2.941403
29 1.498594 0.994160 2.954493
29 1.495536 0.994739 2.962522
29 1.486010 0.996463 2.975088
29 1.475580 0.998216 2.984688
29 1.472084 0.998769 2.988527
29 1.461378 1.000420 2.997603
29 1.458002 1.000910 3.000396
29 1.447531 1.002398 3.009122
29 1.443938 1.002877 3.011217
29 1.433747 1.004213 3.018896
29 1.423166 1.005518 3.028146
29 1.412658 1.006715 3.036175
29 1.409222 1.007079 3.040189
29 1.398658 1.008154 3.046647
29 1.388554 1.009116 3.053803
29 1.377934 1.010051 3.060435
29 1.374491 1.010331 3.062006
30 1.364501 1.011128 3.068638
30 1.353782 1.011911 3.077015
30 1.343015 1.012607 3.084346
30 1.332286 1.013222 3.088360
30 1.321469 1.013798 3.093247
30 1.317849 1.013974 3.095516
30 1.307199 1.014465 3.101799
30 1.296759 1.014880 3.108780
30 1.293477 1.014988 3.110700
30 1.283417 1.015299 3.116634
30 1.274336 1.015526 3.122394
30 1.271351 1.015583 3.124139
30 1.262184 1.015743 3.129899
30 1.253613 1.015843 3.137055
30 1.250627 1.015857 3.139498
30 1.241331 1.015876 -3.135659
30 1.238090 1.015857 -3.131295
30 1.234849 1.015824 -3.127979
30 1.227727 1.015727 -3.121521
30 1.217068 1.015513 -3.112795
30 1.213359 1.015406 -3.110002
30 1.202618 1.015066 -3.104068
31 1.199081 1.014934 -3.102148
31 1.177352 1.014001 -3.089233
31 1.166619 1.013439 -3.081379
31 1.162959 1.013218 -3.079808
31 1.151977 1.012539 -3.075270
31 1.148402 1.012301 -3.073176
31 1.137511 1.011555 -3.069336
31 1.126707 1.010773 -3.064275
31 1.123093 1.010493 -3.061657
31 1.112295 1.009628 -3.054501
31 1.108642 1.009309 -3.052581
31 1.095221 1.008090 -3.045600
31 1.085542 1.007158 -3.044552
31 1.075440 1.006174 -3.040189
31 1.065300 1.005143 -3.034255
31 1.061611 1.004745 -3.030939
31 1.050930 1.003558 -3.023085
31 1.039793 1.002232 -3.015405
31 1.028835 1.000842 -3.011915
31 1.025114 1.000357 -3.010693
32 1.014290 0.998932 -3.005282
32 1.003389 0.997437 -2.997778
32 0.993176 0.995958 -2.993065
32 0.983053 0.994443 -2.987829
32 0.973782 0.993006 -2.985211
32 0.970749 0.992528 -2.983640
32 0.962199 0.991166 -2.979452
32 0.954329 0.989879 -2.976659
32 0.944403 0.988219 -2.971598
32 0.936501 0.986862 -2.965314
32 0.934024 0.986421 -2.963918
32 0.925083 0.984816 -2.958508
32 0.916025 0.983139 -2.951875
32 0.906058 0.981225 -2.945767
32 0.895851 0.979200 -2.938436
32 0.892050 0.978417 -2.937040
32 0.881611 0.976251 -2.934597
32 0.870426 0.973902 -2.927441
32 0.866884 0.973132 -2.926394
33 0.855885 0.970728 -2.923252
33 0.845060 0.968326 -2.921507
33 0.834156 0.965887 -2.918191
33 0.823261 0.963411 -2.913653
33 0.812376 0.960886 -2.909115
33 0.808683 0.960012 -2.907020
33 0.797857 0.957425 -2.903530
33 0.787579 0.954931 -2.899865
33 0.784350 0.954135 -2.897945
33 0.774251 0.951624 -2.892709
33 0.771027 0.950805 -2.892185
33 0.762225 0.948563 -2.887996
33 0.759087 0.947750 -2.885727
33 0.751001 0.945634 -2.883109
33 0.743250 0.943585 -2.880666
33 0.736039 0.941660 -2.877873
33 0.733240 0.940904 -2.876652
33 0.725625 0.938838 -2.872812
33 0.716868 0.936426 -2.862689
33 0.707397 0.933713 -2.856929
33 0.704164 0.932767 -2.856231
34 0.695529 0.930234 -2.853613
34 0.686207 0.927473 -2.849250
34 0.678039 0.925015 -2.840872
34 0.670504 0.922678 -2.830051
34 0.663116 0.920299 -2.812424
34 0.655771 0.917790 -2.794098
34 0.647752 0.914885 -2.776993
34 0.644883 0.913790 -2.769838
34 0.636062 0.910351 -2.760413
34 0.632816 0.909050 -2.757620
34 0.623445 0.905264 -2.751512
34 0.620290 0.903967 -2.750464
34 0.609645 0.899577 -2.747846
34 0.599563 0.895388 -2.744879
34 0.588903 0.890923 -2.741563
34 0.578848 0.886671 -2.738771
34 0.575592 0.885284 -2.738247
34 0.565276 0.880881 -2.737723
34 0.555433 0.876675 -2.732487
35 0.551911 0.875148 -2.729346
35 0.541635 0.870654 -2.722539
35 0.531156 0.865986 -2.719921
35 0.521117 0.861483 -2.715907
35 0.510824 0.856816 -2.713289
35 0.500583 0.852140 -2.710496
35 0.497212 0.850590 -2.709624
35 0.487452 0.846091 -2.705958
35 0.477864 0.841628 -2.702293
35 0.474660 0.840122 -2.702293
35 0.464587 0.835388 -2.701246
35 0.454865 0.830808 -2.695137
35 0.451403 0.829150 -2.693218
35 0.442026 0.824640 -2.688854
35 0.432707 0.820106 -2.685538
35 0.429950 0.818754 -2.683793
35 0.421879 0.814777 -2.675415
35 0.414717 0.811173 -2.659009
35 0.407804 0.807552 -2.640858
35 0.401407 0.804051 -2.617296
35 0.399191 0.802770 -2.610314
36 0.393382 0.799356 -2.588498
36 0.387032 0.795436 -2.564063
36 0.380636 0.791268 -2.542770
36 0.373591 0.786460 -2.517812
36 0.366426 0.781304 -2.501231
36 0.363964 0.779469 -2.494250
36 0.355561 0.773117 -2.480811
36 0.347110 0.766547 -2.471910
36 0.338551 0.759771 -2.466150
36 0.335722 0.757504 -2.464929
36 0.326578 0.750160 -2.459343
36 0.317873 0.743088 -2.456202
36 0.309190 0.735989 -2.451664
36 0.300342 0.728687 -2.447301
36 0.291591 0.721402 -2.443461
36 0.282966 0.714165 -2.441716
36 0.274224 0.706803 -2.438225
36 0.265995 0.699825 -2.435083
36 0.263400 0.697610 -2.433862
37 0.255688 0.691011 -2.430196
37 0.248614 0.684914 -2.422866
37 0.242034 0.679157 -2.406984
37 0.235736 0.673469 -2.391625
37 0.229870 0.668004 -2.375044
37 0.223695 0.662058 -2.357940
37 0.217593 0.655977 -2.340487
37 0.210797 0.648964 -2.321462
37 0.208586 0.646594 -2.317448
37 0.201722 0.639176 -2.306627
37 0.194193 0.630862 -2.298948
37 0.186701 0.622458 -2.294584
37 0.178991 0.613735 -2.292839
37 0.171522 0.605254 -2.289523
37 0.163912 0.596555 -2.287603
37 0.156460 0.588003 -2.282367
37 0.149052 0.579412 -2.277480
38 0.139142 0.567798 -2.273640
38 0.131782 0.559110 -2.269801
38 0.129339 0.556205 -2.268579
38 0.122105 0.547578 -2.265786
38 0.114732 0.538734 -2.263343
38 0.107407 0.529905 -2.260201
38 0.100164 0.521119 -2.257583
38 0.090382 0.509177 -2.255489
38 0.083180 0.500356 -2.253744
38 0.075914 0.491424 -2.251649
38 0.073498 0.488442 -2.250951
38 0.066230 0.479457 -2.248857
38 0.058900 0.470357 -2.246762
38 0.056525 0.467396 -2.246413
38 0.049191 0.458244 -2.245192
38 0.042241 0.449550 -2.243097
38 0.035548 0.441142 -2.240479
38 0.033324 0.438334 -2.237687
38 0.027389 0.430794 -2.231753
39 0.021682 0.423455 -2.223200
39 0.020077 0.421354 -2.217092
39 0.014837 0.414409 -2.201907
39 0.013277 0.412274 -2.195624
39 0.008986 0.406325 -2.173633
39 0.007487 0.404147 -2.167175
39 0.003727 0.398607 -2.147279
39 0.000287 0.393316 -2.121971
39 -0.002103 0.389428 -2.095791
39 -0.004262 0.385701 -2.056871
39 -0.004860 0.384570 -2.043781
39 -0.006764 0.380849 -2.005383
39 -0.008523 0.377059 -1.962623
39 -0.009061 0.375758 -1.951453
39 -0.010740 0.371561 -1.912532
39 -0.012455 0.366739 -1.875880
39 -0.014031 0.361736 -1.835214
39 -0.015647 0.355767 -1.803274
39 -0.017209 0.349169 -1.771858
39 -0.017754 0.346495 -1.757372
39 -0.019305 0.338281 -1.733286
40 -0.020733 0.329570 -1.709725
40 -0.021205 0.326191 -1.704139
40 -0.022515 0.316427 -1.688257
40 -0.023759 0.305881 -1.673422
40 -0.024131 0.302276 -1.670629
40 -0.025193 0.291667 -1.662077
40 -0.026165 0.281050 -1.652652
40 -0.026454 0.277522 -1.650383
40 -0.027312 0.266767 -1.642878
40 -0.027564 0.263279 -1.638864
40 -0.028289 0.252642 -1.630312
40 -0.028923 0.242000 -1.619142
40 -0.029094 0.238464 -1.615826
40 -0.029572 0.227856 -1.607972
40 -0.029706 0.224276 -1.605179
40 -0.030078 0.213451 -1.596453
40 -0.030350 0.202835 -1.588075
40 -0.030531 0.192388 -1.579698
40 -0.030560 0.189148 -1.577603
40 -0.030626 0.179467 -1.571145
40 -0.030627 0.176525 -1.567829
40 -0.030601 0.167910 -1.560673
41 -0.030524 0.160277 -1.550027
41 -0.030468 0.157591 -1.545489
41 -0.030299 0.150897 -1.532399
41 -0.030207 0.148511 -1.527861
41 -0.029956 0.142674 -1.507790
41 -0.029833 0.140716 -1.502379
41 -0.029454 0.135185 -1.483355
41 -0.029040 0.130469 -1.455954
41 -0.028556 0.126275 -1.429076
41 -0.027972 0.122180 -1.397485
41 -0.027391 0.118861 -1.367815
41 -0.026738 0.115687 -1.331686
41 -0.026516 0.114775 -1.321912
41 -0.025896 0.112337 -1.291020
41 -0.025378 0.110533 -1.252448
41 -0.024750 0.108630 -1.218065
41 -0.024220 0.107189 -1.174432
41 -0.023644 0.105812 -1.131148
41 -0.022936 0.104307 -1.078963
42 -0.022211 0.102954 -1.031664
42 -0.021466 0.101709 -0.976686
42 -0.021204 0.101321 -0.961327
42 -0.020374 0.100132 -0.915425
42 -0.019386 0.098847 -0.859400
42 -0.018495 0.097813 -0.812974
42 -0.017469 0.096729 -0.757298
42 -0.016570 0.095880 -0.709651
42 -0.015535 0.094990 -0.655022
42 -0.015129 0.094679 -0.638965
42 -0.014034 0.093865 -0.590968
42 -0.012901 0.093105 -0.535467
42 -0.012534 0.092887 -0.519934
42 -0.011424 0.092251 -0.463909
42 -0.010280 0.091679 -0.418006
42 -0.009929 0.091523 -0.403695
42 -0.008635 0.090970 -0.352382
42 -0.007514 0.090558 -0.312239
42 -0.006459 0.090217 -0.267908
43 -0.005102 0.089845 -0.232129
43 -0.004230 0.089639 -0.195477
43 -0.003728 0.089540 -0.186227
43 -0.002848 0.089374 -0.161094
43 -0.002427 0.089305 -0.152716
43 -0.001120 0.089104 -0.122871
43 -0.000824 0.089068 -0.114668
43 0.000362 0.088931 -0.092852
43 0.001254 0.088848 -0.070162
43 0.002317 0.088773 -0.054280
43 0.003297 0.088720 -0.035081
43 0.004234 0.088687 -0.024784
43 0.004576 0.088679 -0.017279
43 0.004576 0.088679 -0.014312
43 0.004618 0.088678 -0.009250
43 0.004618 0.088678 -0.009948
43 0.004618 0.088678 -0.010123
43 0.004618 0.088678 -0.011519
43 0.004618 0.088678 -0.011170
43 0.004618 0.088678 -0.011170
44 0.004618 0.088678 -0.011170
44 0.004618 0.088678 -0.010821
44 0.004618 0.088678 -0.010996
44 0.004618 0.088678 -0.011170
44 0.004618 0.088678 -0.011345
44 0.004618 0.088678 -0.011345
44 0.004618 0.088678 -0.011345
44 0.004618 0.088678 -0.011345
44 0.004618 0.088678 -0.011345
44 0.004618 0.088678 -0.011345
44 0.004618 0.088678 -0.011345
44 0.004618 0.088678 -0.011345
44 0.004618 0.088678 -0.011345
44 0.004618 0.088678 -0.011345
44 0.004618 0.088678 -0.011345
44 0.004618 0.088678 -0.011345
44 0.004618 0.088678 -0.011345
44 0.004618 0.088678 -0.011345
44 0.004618 0.088678 -0.011345
44 0.004618 0.088678 -0.011345
44 0.004618 0.088678 -0.011345
45 0.004618 0.088678 -0.011345
45 0.004618 0.088678 -0.011345
45 0.004618 0.088678 -0.011345
45 0.004618 0.088678 -0.011345
45 0.004618 0.088678 -0.011345
45 0.004618 0.088678 -0.011345
45 0.004618 0.088678 -0.011345
45 0.004618 0.088678 -0.011345
45 0.004618 0.088678 -0.011345
45 0.004618 0.088678 -0.011345
45 0.004618 0.088678 -0.011345
45 0.004618 0.088678 -0.011345
45 0.004618 0.088678 -0.011345
45 0.004618 0.088678 -0.011345
45 0.004618 0.088678 -0.011345
45 0.004618 0.088678 -0.011345
45 0.004618 0.088678 -0.011345
45 0.004618 0.088678 -0.011345
45 0.004618 0.088678 -0.011345
46 0.004618 0.088678 -0.011345
46 0.004618 0.088678 -0.011345
46 0.004618 0.088678 -0.011345
46 0.004618 0.088678 -0.011345
46 0.004618 0.088678 -0.011345
46 0.004618 0.088678 -0.011345
46 0.004618 0.088678 -0.011345
46 0.004618 0.088678 -0.011345
46 0.004618 0.088678 -0.011345
46 0.004618 0.088678 -0.011345
46 0.004618 0.088678 -0.011345
46 0.004618 0.088678 -0.011345
46 0.004618 0.088678 -0.011345
46 0.004618 0.088678 -0.011345
46 0.004618 0.088678 -0.011345
46 0.004618 0.088678 -0.011345
46 0.004618 0.088678 -0.011345
46 0.004618 0.088678 -0.011345
46 0.004618 0.088678 -0.011345
46 0.004618 0.088678 -0.011345
46 0.004618 0.088678 -0.011345
46 0.004618 0.088678 -0.011345
47 0.004618 0.088678 -0.011345
47 0.004618 0.088678 -0.011345
47 0.004618 0.088678 -0.011345
47 0.004618 0.088678 -0.011345
47 0.004618 0.088678 -0.011345
47 0.004618 0.088678 -0.011345
47 0.004618 0.088678 -0.011345
47 0.004618 0.088678 -0.011345
47 0.004618 0.088678 -0.011345
47 0.004618 0.088678 -0.011345
47 0.004618 0.088678 -0.011345
47 0.004618 0.088678 -0.011345
47 0.004618 0.088678 -0.011345
47 0.004618 0.088678 -0.011345
47 0.004618 0.088678 -0.011345
47 0.004618 0.088678 -0.011345
47 0.004618 0.088678 -0.011345
47 0.004618 0.088678 -0.011345
47 0.004618 0.088678 -0.011345
48 0.004618 0.088678 -0.011345
48 0.004618 0.088678 -0.011345
48 0.004618 0.088678 -0.011345
48 0.004618 0.088678 -0.011345
48 0.004618 0.088678 -0.011345
48 0.004618 0.088678 -0.011345
48 0.004618 0.088678 -0.011345
48 0.004618 0.088678 -0.011345
48 0.004618 0.088678 -0.011345
48 0.004618 0.088678 -0.011345
48 0.004618 0.088678 -0.011345
48 0.004618 0.088678 -0.011345
48 0.004618 0.088678 -0.011345
48 0.004618 0.088678 -0.011345
48 0.004618 0.088678 -0.011345
48 0.004618 0.088678 -0.011345
48 0.004618 0.088678 -0.011345
48 0.004618 0.088678 -0.011345
48 0.004618 0.088678 -0.011345
48 0.004618 0.088678 -0.011345
48 0.004618 0.088678 -0.011345
49 0.004618 0.088678 -0.011345
49 0.004618 0.088678 -0.011345
49 0.004618 0.088678 -0.011345
49 0.004618 0.088678 -0.011345
49 0.004618 0.088678 -0.011345
49 0.004618 0.088678 -0.011345
49 0.004618 0.088678 -0.011345
49 0.004618 0.088678 -0.011345
49 0.004618 0.088678 -0.011345
49 0.004618 0.088678 -0.011345
49 0.004618 0.088678 -0.011345
49 0.004618 0.088678 -0.011345
49 0.004618 0.088678 -0.011345
49 0.004618 0.088678 -0.011345
49 0.004618 0.088678 -0.011345
49 0.004618 0.088678 -0.011345
49 0.004618 0.088678 -0.011345
49 0.004618 0.088678 -0.011345
49 0.004618 0.088678 -0.011345
49 0.004618 0.088678 -0.011345
49 0.004618 0.088678 -0.011345
50 0.004618 0.088678 -0.011345
50 0.004618 0.088678 -0.011345
50 0.004618 0.088678 -0.011345
50 0.004618 0.088678 -0.011345
50 0.004618 0.088678 -0.011345
50 0.004618 0.088678 -0.011345
50 0.004618 0.088678 -0.011345
50 0.004618 0.088678 -0.011345
50 0.004618 0.088678 -0.011345
50 0.004618 0.088678 -0.011345
50 0.004618 0.088678 -0.011345
50 0.004618 0.088678 -0.011345
50 0.004618 0.088678 -0.011345
50 0.004618 0.088678 -0.011345
50 0.004618 0.088678 -0.011345
50 0.004618 0.088678 -0.011345
50 0.004618 0.088678 -0.011345
50 0.004618 0.088678 -0.011345
50 0.004618 0.088678 -0.011345
50 0.004618 0.088678 -0.011345
51 0.004618 0.088678 -0.011345
51 0.004618 0.088678 -0.011345
51 0.004618 0.088678 -0.011345
51 0.004618 0.088678 -0.011345
51 0.004618 0.088678 -0.011345
51 0.004618 0.088678 -0.011345
51 0.004618 0.088678 -0.011345
51 0.004618 0.088678 -0.011345
51 0.004618 0.088678 -0.011345
51 0.004618 0.088678 -0.011345
51 0.004618 0.088678 -0.011345
51 0.004618 0.088678 -0.011345
51 0.004618 0.088678 -0.011345
51 0.004618 0.088678 -0.011345
51 0.004618 0.088678 -0.011345
51 0.004618 0.088678 -0.011345
51 0.004618 0.088678 -0.011345
51 0.004618 0.088678 -0.011345
51 0.004618 0.088678 -0.011345
52 0.004618 0.088678 -0.011345
52 0.004618 0.088678 -0.011345
52 0.004618 0.088678 -0.011345
52 0.004618 0.088678 -0.011345
52 0.004618 0.088678 -0.011345
52 0.004618 0.088678 -0.011345
52 0.004618 0.088678 -0.011345
52 0.004618 0.088678 -0.011345
52 0.004618 0.088678 -0.011345
52 0.004618 0.088678 -0.011345
52 0.004618 0.088678 -0.011345
52 0.004618 0.088678 -0.011345
52 0.004618 0.088678 -0.011345
52 0.004618 0.088678 -0.011345
52 0.004618 0.088678 -0.011345
52 0.004618 0.088678 -0.011345
52 0.004618 0.088678 -0.011345
52 0.004618 0.088678 -0.011345
52 0.004618 0.088678 -0.011345
53 0.004618 0.088678 -0.011345
53 0.004618 0.088678 -0.011345
53 0.004618 0.088678 -0.011345
53 0.004618 0.088678 -0.011345
53 0.004618 0.088678 -0.011345
53 0.004618 0.088678 -0.011345
53 0.004618 0.088678 -0.011345
53 0.004618 0.088678 -0.011345
53 0.004618 0.088678 -0.011345
53 0.004618 0.088678 -0.011345
53 0.004618 0.088678 -0.011345
53 0.004618 0.088678 -0.011345
53 0.004618 0.088678 -0.011345
53 0.004618 0.088678 -0.011345
53 0.004618 0.088678 -0.011345
53 0.004618 0.088678 -0.011345
53 0.004618 0.088678 -0.011345
53 0.004618 0.088678 -0.011345
53 0.004618 0.088678 -0.011345
53 0.004618 0.088678 -0.011345
54 0.004618 0.088678 -0.011345
