1 0.000000 0.000000 0.000000
2 0.001450 0.000000 0.000000
2 0.003028 0.000000 -0.000349
2 0.003540 -0.000000 -0.000349
2 0.005672 -0.000001 0.000349
2 0.008700 0.000000 0.000000
2 0.012154 0.000000 0.000524
2 0.016248 0.000002 0.000873
2 0.019916 0.000005 0.000349
2 0.020939 0.000006 0.000000
2 0.023498 0.000006 0.000349
2 0.026099 0.000007 0.000175
2 0.026824 0.000007 -0.000175
2 0.027891 0.000007 0.000175
2 0.029127 0.000007 0.000524
2 0.029127 0.000007 0.000349
2 0.029340 0.000007 0.000175
2 0.029426 0.000007 0.000349
2 0.029468 0.000007 0.000349
2 0.030236 0.000007 0.000175
2 0.030577 0.000007 0.000175
2 0.032112 0.000008 0.000524
3 0.034032 0.000009 0.000175
3 0.034629 0.000009 0.000000
3 0.037955 0.000009 -0.000175
3 0.038893 0.000009 0.000175
3 0.042774 0.000009 0.001396
3 0.046868 0.000015 0.000000
3 0.050834 0.000015 -0.000349
3 0.051772 0.000015 -0.000175
3 0.054459 0.000014 -0.000349
3 0.055355 0.000014 -0.000349
3 0.058468 0.000013 0.000175
3 0.060899 0.000013 -0.000698
3 0.064523 0.000011 -0.001571
3 0.065888 0.000008 -0.001047
3 0.070878 0.000003 0.001396
3 0.076038 0.000010 0.000698
3 0.082264 0.000015 0.000175
3 0.088576 0.000016 0.000698
3 0.095868 0.000021 0.000873
3 0.098256 0.000023 0.000873
3 0.104909 0.000029 -0.000175
4 0.111349 0.000028 0.000524
4 0.116893 0.000031 0.001047
4 0.121754 0.000036 0.000175
4 0.126531 0.000037 -0.000175
4 0.130156 0.000036 0.000524
4 0.134932 0.000038 0.000524
4 0.138685 0.000040 -0.000349
4 0.143888 0.000039 0.000175
4 0.145722 0.000039 0.000000
4 0.151692 0.000039 -0.000524
4 0.158345 0.000035 0.000175
4 0.165893 0.000037 0.000349
4 0.173484 0.000039 0.000000
4 0.181971 0.000039 0.000698
4 0.189988 0.000045 0.002443
4 0.198006 0.000065 0.001222
4 0.205213 0.000073 0.001920
4 0.207217 0.000077 0.002269
5 0.213230 0.000091 0.001222
5 0.219286 0.000098 0.003142
5 0.224147 0.000114 0.002094
5 0.228711 0.000123 0.000873
5 0.232975 0.000127 0.002618
5 0.237368 0.000138 0.002269
5 0.242357 0.000150 0.003142
5 0.248370 0.000169 0.004189
5 0.250332 0.000177 0.003665
5 0.257454 0.000203 0.005760
5 0.264832 0.000245 0.005236
5 0.267561 0.000260 0.004887
5 0.275706 0.000299 0.004712
5 0.284619 0.000341 0.004887
5 0.293660 0.000386 0.004363
5 0.302445 0.000424 0.004363
5 0.311912 0.000465 0.004189
5 0.315111 0.000479 0.004014
6 0.324834 0.000518 0.003491
6 0.335197 0.000554 0.003665
6 0.345219 0.000591 0.003665
6 0.355326 0.000628 0.003665
6 0.365262 0.000664 0.003665
6 0.374857 0.000699 0.003316
6 0.384239 0.000730 0.003142
6 0.392769 0.000757 0.003665
6 0.401170 0.000788 0.003491
6 0.403814 0.000797 0.004189
6 0.410424 0.000825 0.003840
6 0.417461 0.000852 0.002269
6 0.423602 0.000866 0.004363
6 0.429103 0.000890 0.004363
6 0.435073 0.000916 0.004189
6 0.440788 0.000940 0.004887
6 0.447014 0.000970 0.004189
6 0.454392 0.001001 0.004538
7 0.456780 0.001012 0.004538
7 0.464755 0.001048 0.007156
7 0.473369 0.001110 0.007505
7 0.482964 0.001182 0.007156
7 0.493113 0.001254 0.008203
7 0.502794 0.001334 0.007679
7 0.505779 0.001357 0.007679
7 0.515075 0.001428 0.008727
7 0.523306 0.001500 0.008552
7 0.526419 0.001527 0.008203
7 0.533199 0.001582 0.007854
7 0.540790 0.001642 0.008901
7 0.542581 0.001658 0.008901
7 0.549404 0.001719 0.008203
7 0.554735 0.001762 0.007854
7 0.556398 0.001775 0.008203
7 0.561345 0.001816 0.007854
7 0.562667 0.001826 0.008029
7 0.567187 0.001863 0.008378
7 0.572816 0.001911 0.008727
8 0.576484 0.001943 0.007505
8 0.577550 0.001951 0.007330
8 0.582582 0.001987 0.008029
8 0.584458 0.002003 0.008203
8 0.590727 0.002054 0.008029
8 0.597721 0.002110 0.008203
8 0.605098 0.002171 0.008029
8 0.607529 0.002190 0.007854
8 0.615717 0.002254 0.007854
8 0.623307 0.002314 0.009250
8 0.631197 0.002387 0.009425
8 0.633755 0.002411 0.009076
8 0.640067 0.002468 0.009599
8 0.646378 0.002529 0.009774
8 0.651836 0.002582 0.009425
8 0.656655 0.002628 0.010821
8 0.661943 0.002685 0.010647
8 0.667146 0.002740 0.010647
8 0.673414 0.002807 0.011170
8 0.680450 0.002886 0.012566
9 0.682796 0.002915 0.012043
9 0.690514 0.003008 0.012392
9 0.698872 0.003112 0.012741
9 0.708211 0.003231 0.013439
9 0.717294 0.003353 0.012392
9 0.726590 0.003468 0.012915
9 0.729319 0.003503 0.012566
9 0.737250 0.003603 0.013439
9 0.745182 0.003710 0.013090
9 0.747655 0.003742 0.013265
9 0.754137 0.003828 0.012915
9 0.760533 0.003911 0.013265
9 0.762196 0.003933 0.013090
9 0.767612 0.004004 0.012217
9 0.772857 0.004068 0.012392
9 0.774989 0.004094 0.012741
9 0.780490 0.004164 0.012217
9 0.786971 0.004243 0.011345
9 0.789104 0.004267 0.011868
9 0.796651 0.004357 0.012741
10 0.804583 0.004458 0.012043
10 0.813282 0.004563 0.010996
10 0.822493 0.004664 0.011345
10 0.831917 0.004771 0.010996
10 0.840915 0.004870 0.011694
10 0.849017 0.004965 0.012915
10 0.857247 0.005071 0.011868
10 0.859848 0.005102 0.011694
10 0.866117 0.005175 0.012741
10 0.872556 0.005257 0.012915
10 0.878185 0.005330 0.013788
10 0.883046 0.005397 0.013963
10 0.888419 0.005472 0.012741
10 0.892896 0.005529 0.013614
10 0.898952 0.005612 0.013788
10 0.905007 0.005695 0.013614
10 0.907096 0.005723 0.014661
10 0.914644 0.005834 0.015533
11 0.922660 0.005959 0.015010
11 0.931572 0.006092 0.015184
11 0.940783 0.006232 0.014835
11 0.950377 0.006375 0.015184
11 0.953405 0.006421 0.015708
11 0.962316 0.006561 0.015708
11 0.970973 0.006697 0.016057
11 0.973574 0.006738 0.016232
11 0.981761 0.006871 0.015882
11 0.984319 0.006912 0.016057
11 0.990971 0.007019 0.015882
11 0.993359 0.007057 0.015359
11 0.999286 0.007148 0.016232
11 1.005085 0.007242 0.015882
11 1.009946 0.007319 0.015184
11 1.014892 0.007394 0.015708
11 1.016172 0.007414 0.015359
11 1.020820 0.007486 0.014661
11 1.026022 0.007562 0.015010
11 1.027898 0.007590 0.015010
11 1.034550 0.007690 0.015708
12 1.041245 0.007795 0.015533
12 1.048963 0.007915 0.015184
12 1.056766 0.008034 0.015533
12 1.065379 0.008167 0.016755
12 1.073566 0.008305 0.017628
12 1.076167 0.008350 0.017453
12 1.083800 0.008484 0.017977
12 1.090878 0.008611 0.018500
12 1.096933 0.008723 0.018675
12 1.102987 0.008836 0.018675
12 1.108871 0.008946 0.018151
12 1.115822 0.009072 0.019373
12 1.123283 0.009217 0.020420
12 1.132024 0.009395 0.020420
12 1.134838 0.009453 0.020071
12 1.143920 0.009635 0.020246
12 1.153897 0.009837 0.020071
12 1.164045 0.010041 0.019722
13 1.175045 0.010258 0.019722
13 1.184852 0.010451 0.019548
13 1.194872 0.010647 0.018151
13 1.204167 0.010816 0.019024
13 1.212567 0.010975 0.019199
13 1.214954 0.011021 0.019373
13 1.222970 0.011177 0.018500
13 1.229707 0.011301 0.018675
13 1.236231 0.011423 0.018850
13 1.242414 0.011540 0.018326
13 1.248554 0.011652 0.018326
13 1.255973 0.011788 0.018675
13 1.263776 0.011934 0.018500
13 1.266206 0.011979 0.018500
13 1.275203 0.012145 0.017977
13 1.284114 0.012306 0.018850
13 1.297119 0.012555 0.019722
13 1.308162 0.012773 0.019897
14 1.318139 0.012972 0.021118
14 1.328628 0.013193 0.021468
14 1.337965 0.013394 0.021293
14 1.347260 0.013591 0.021817
14 1.355446 0.013770 0.021817
14 1.357919 0.013824 0.021642
14 1.365594 0.013990 0.021817
14 1.372756 0.014146 0.021817
14 1.375272 0.014201 0.021642
14 1.381966 0.014346 0.021293
14 1.384353 0.014397 0.021293
14 1.391559 0.014551 0.021991
14 1.399361 0.014722 0.021468
14 1.416885 0.015086 0.020769
14 1.419827 0.015147 0.020769
14 1.430102 0.015361 0.020071
14 1.440335 0.015566 0.020420
14 1.444173 0.015645 0.020420
14 1.454662 0.015859 0.019548
15 1.465321 0.016067 0.019897
15 1.474829 0.016256 0.020246
15 1.484380 0.016450 0.019722
15 1.492694 0.016614 0.019897
15 1.495253 0.016665 0.020246
15 1.502842 0.016818 0.020595
15 1.510090 0.016968 0.020944
15 1.512606 0.017020 0.020595
15 1.518788 0.017148 0.020420
15 1.521602 0.017205 0.020769
15 1.527955 0.017337 0.020944
15 1.530343 0.017387 0.021293
15 1.538316 0.017557 0.021293
15 1.546587 0.017733 0.021817
15 1.555498 0.017927 0.021642
15 1.565049 0.018134 0.023038
15 1.575409 0.018373 0.022166
15 1.586281 0.018614 0.022689
15 1.590246 0.018704 0.023387
15 1.600222 0.018937 0.022515
16 1.610711 0.019173 0.022689
16 1.613482 0.019236 0.023038
16 1.623032 0.019456 0.022689
16 1.631175 0.019641 0.022340
16 1.639361 0.019824 0.022340
16 1.645885 0.019970 0.023911
16 1.652322 0.020124 0.026180
16 1.657609 0.020262 0.032114
16 1.659228 0.020314 0.034907
16 1.664087 0.020484 0.047997
16 1.668176 0.020680 0.061261
16 1.669666 0.020772 0.066672
16 1.672177 0.020939 0.087092
16 1.673239 0.021032 0.093899
16 1.675022 0.021200 0.116413
16 1.677140 0.021448 0.142942
16 1.678280 0.021612 0.158127
16 1.679712 0.021840 0.176627
16 1.680047 0.021900 0.179420
16 1.682062 0.022265 0.188496
17 1.682816 0.022409 0.194779
17 1.685326 0.022904 0.206996
17 1.686495 0.023150 0.210138
17 1.688330 0.023541 0.214152
17 1.689205 0.023732 0.215374
17 1.691288 0.024187 0.224798
17 1.692660 0.024501 0.236492
17 1.693116 0.024611 0.239634
17 1.693862 0.024793 0.252549
17 1.694233 0.024889 0.259880
17 1.695057 0.025108 0.270526
17 1.696044 0.025382 0.285710
17 1.696289 0.025454 0.291470
17 1.697964 0.025956 0.312588
17 1.698532 0.026140 0.319919
17 1.700475 0.026784 0.339816
17 1.701239 0.027054 0.345052
17 1.704169 0.028107 0.362854
17 1.706760 0.029091 0.380307
17 1.709849 0.030325 0.396190
17 1.710675 0.030671 0.402473
17 1.713422 0.031840 0.416086
17 1.716035 0.032995 0.432667
18 1.716926 0.033406 0.437903
18 1.719784 0.034745 0.455356
18 1.720665 0.035176 0.460418
18 1.724103 0.036881 0.477348
18 1.725164 0.037430 0.482409
18 1.729357 0.039626 0.493754
18 1.734314 0.042294 0.503178
18 1.739657 0.045235 0.508240
18 1.741482 0.046252 0.511207
18 1.747471 0.049611 0.516094
18 1.752663 0.052557 0.520283
18 1.754699 0.053723 0.524471
18 1.759128 0.056286 0.533722
18 1.760707 0.057218 0.537561
18 1.764407 0.059424 0.555713
18 1.765349 0.060009 0.560949
18 1.769718 0.062754 0.580147
18 1.773927 0.065512 0.604757
18 1.778803 0.068883 0.622733
18 1.784207 0.072763 0.636696
18 1.786231 0.074259 0.639838
18 1.792423 0.078868 0.646121
19 1.799130 0.083926 0.653102
19 1.801298 0.085585 0.655720
19 1.808126 0.090837 0.663574
19 1.814442 0.095775 0.668985
19 1.820564 0.100615 0.681377
19 1.826460 0.105397 0.692547
19 1.831318 0.109427 0.706684
19 1.836410 0.113774 0.725708
19 1.840684 0.117567 0.745081
19 1.845668 0.122164 0.770737
19 1.847229 0.123679 0.778068
19 1.852666 0.129038 0.798837
19 1.858288 0.134813 0.812276
19 1.864566 0.141437 0.821701
19 1.870722 0.148058 0.828682
19 1.877496 0.155445 0.833918
19 1.879817 0.158003 0.836885
19 1.885958 0.164811 0.841772
19 1.892293 0.171904 0.847881
20 1.894127 0.173983 0.848405
20 1.899371 0.179934 0.852244
20 1.900972 0.181763 0.854688
20 1.905423 0.186879 0.867254
20 1.906775 0.188472 0.871617
20 1.910974 0.193466 0.889420
20 1.914520 0.197838 0.912982
20 1.917675 0.201922 0.933577
20 1.918588 0.203156 0.945619
20 1.921733 0.207513 0.970403
20 1.924503 0.211559 0.997107
20 1.925545 0.213171 1.009848
20 1.928993 0.218660 1.033759
20 1.930019 0.220382 1.040391
20 1.933838 0.226893 1.060637
20 1.934983 0.228940 1.066047
20 1.938901 0.236033 1.081231
20 1.942852 0.243447 1.094147
20 1.946824 0.251139 1.102524
20 1.948152 0.253765 1.106539
20 1.951646 0.260743 1.114218
20 1.955012 0.267595 1.123468
21 1.956100 0.269863 1.129577
21 1.959233 0.276496 1.145285
21 1.960201 0.278632 1.151045
21 1.963451 0.285915 1.170767
21 1.964497 0.288390 1.176003
21 1.967646 0.295948 1.186824
21 1.971177 0.304686 1.196947
21 1.974666 0.313579 1.203754
21 1.978446 0.323411 1.211084
21 1.979647 0.326604 1.213004
21 1.983171 0.336032 1.217891
21 1.986547 0.345196 1.222254
21 1.987639 0.348202 1.224174
21 1.990551 0.356264 1.233250
21 1.993347 0.364231 1.245118
21 1.995735 0.371302 1.259430
21 1.997917 0.378081 1.282293
21 1.999701 0.384091 1.303237
21 2.001268 0.389808 1.330814
21 2.001805 0.392004 1.339889
22 2.002283 0.394038 1.349663
22 2.003191 0.398074 1.372352
22 2.004687 0.405516 1.397834
22 2.006038 0.413246 1.415287
22 2.006520 0.416321 1.424363
22 2.007335 0.421848 1.434486
22 2.008587 0.430974 1.447576
22 2.009745 0.440327 1.461713
22 2.010859 0.450502 1.470440
22 2.011936 0.461194 1.478468
22 2.012251 0.464592 1.478992
22 2.013275 0.475718 1.481261
22 2.014236 0.486422 1.482832
22 2.015188 0.497212 1.484752
22 2.016129 0.508131 1.489464
22 2.017006 0.518885 1.493304
22 2.017851 0.529770 1.496271
22 2.018601 0.539806 1.500460
22 2.019317 0.549973 1.507092
22 2.019529 0.553293 1.508663
23 2.020061 0.561848 1.514771
23 2.020546 0.570492 1.528036
23 2.020872 0.578119 1.543220
23 2.021098 0.586303 1.564513
23 2.021153 0.595088 1.584061
23 2.021028 0.604512 1.602212
23 2.020694 0.615126 1.610415
23 2.020277 0.625651 1.616000
23 2.020125 0.629017 1.616524
23 2.019606 0.640349 1.620887
23 2.019066 0.651125 1.624203
23 2.018515 0.661430 1.626472
23 2.017941 0.671735 1.629788
23 2.017403 0.680845 1.636421
23 2.016754 0.690718 1.646195
23 2.016507 0.693992 1.650558
23 2.015732 0.703685 1.661903
23 2.014727 0.714684 1.671676
23 2.014371 0.718206 1.672898
24 2.013214 0.729490 1.675691
24 2.012058 0.740475 1.676563
24 2.010869 0.751671 1.679879
24 2.009676 0.762566 1.683021
24 2.008444 0.773499 1.685464
24 2.008024 0.777143 1.687733
24 2.006746 0.788028 1.693842
24 2.005395 0.798947 1.697333
24 2.004077 0.809312 1.701347
24 2.003666 0.812441 1.702394
24 2.002368 0.822249 1.706408
24 2.001970 0.825165 1.708154
24 2.000819 0.833487 1.717229
24 1.999656 0.841376 1.734334
24 1.999218 0.844027 1.740268
24 1.998082 0.850669 1.759117
24 1.996781 0.857497 1.782156
24 1.996387 0.859332 1.788962
24 1.995159 0.864869 1.815666
24 1.994022 0.869420 1.843417
25 1.993517 0.871228 1.853889
25 1.992206 0.875732 1.891064
25 1.990609 0.880549 1.922655
25 1.988713 0.885713 1.957561
25 1.986718 0.890611 1.985661
25 1.984913 0.894709 2.018997
25 1.984322 0.895938 2.028073
25 1.982496 0.899650 2.060361
25 1.981914 0.900742 2.072753
25 1.980396 0.903508 2.115339
25 1.979777 0.904529 2.127207
25 1.978493 0.906594 2.164383
25 1.976752 0.909174 2.209238
25 1.975176 0.911297 2.250078
25 1.974560 0.912061 2.271721
25 1.971975 0.915124 2.313434
25 1.969293 0.918046 2.348515
25 1.966091 0.921297 2.385167
25 1.965036 0.922292 2.396163
25 1.961088 0.925937 2.437352
25 1.956960 0.929444 2.471037
26 1.952283 0.933154 2.508213
26 1.947608 0.936587 2.535614
26 1.943437 0.939477 2.563540
26 1.939186 0.942250 2.582913
26 1.935208 0.944737 2.607173
26 1.933887 0.945519 2.619739
26 1.928416 0.948665 2.645570
26 1.926503 0.949700 2.652551
26 1.920479 0.952906 2.672274
26 1.918197 0.954063 2.678033
26 1.911026 0.957648 2.691123
26 1.903539 0.961268 2.702468
26 1.895202 0.965185 2.709798
26 1.887223 0.968861 2.718350
26 1.884657 0.970017 2.720968
26 1.876637 0.973604 2.728648
26 1.869294 0.976822 2.732313
26 1.866986 0.977823 2.733709
26 1.860839 0.980479 2.742436
26 1.855378 0.982783 2.751686
27 1.850763 0.984679 2.763554
27 1.845570 0.986741 2.776295
27 1.840153 0.988813 2.789560
27 1.837992 0.989607 2.797065
27 1.831649 0.991883 2.806315
27 1.824441 0.994395 2.813645
27 1.822220 0.995150 2.816089
27 1.813856 0.997973 2.824466
27 1.811182 0.998851 2.826212
27 1.802425 1.001708 2.834240
27 1.792751 1.004779 2.842094
27 1.782849 1.007836 2.851344
27 1.779539 1.008825 2.854486
27 1.769273 1.011856 2.863562
27 1.765869 1.012828 2.866703
27 1.755731 1.015687 2.872114
27 1.745619 1.018480 2.878921
27 1.742077 1.019432 2.880666
27 1.732971 1.021864 2.886775
27 1.729752 1.022702 2.889218
27 1.721039 1.024949 2.898817
27 1.718390 1.025605 2.902133
28 1.710601 1.027507 2.918016
28 1.703241 1.029180 2.939833
28 1.696597 1.030539 2.961126
28 1.694626 1.030899 2.972645
28 1.688488 1.031946 2.994636
28 1.683130 1.032739 3.021689
28 1.677880 1.033371 3.059737
28 1.676180 1.033511 3.071081
28 1.669671 1.033971 3.101974
28 1.663152 1.034229 3.116111
28 1.655776 1.034417 3.134611
28 1.648100 1.034471 -3.133913
28 1.639529 1.034405 -3.123616
28 1.630191 1.034237 -3.115587
28 1.626865 1.034150 -3.113493
28 1.618041 1.033902 -3.107559
28 1.608707 1.033585 -3.101101
28 1.600483 1.033251 -3.098134
28 1.592005 1.032883 -3.094818
29 1.583570 1.032488 -3.088535
29 1.580802 1.032341 -3.084171
29 1.571222 1.031790 -3.074921
29 1.561648 1.031151 -3.069161
29 1.558288 1.030907 -3.067416
29 1.548932 1.030212 -3.066543
29 1.539746 1.029521 -3.067242
29 1.536599 1.029287 -3.068114
29 1.529156 1.028739 -3.068114
29 1.521756 1.028194 -3.070034
29 1.515035 1.027712 -3.076143
29 1.509120 1.027325 -3.086440
29 1.507161 1.027217 -3.089407
29 1.501710 1.026932 -3.102148
29 1.496341 1.026720 -3.122219
29 1.494550 1.026685 -3.129201
29 1.488367 1.026609 3.130772
29 1.481416 1.026684 3.119951
29 1.473869 1.026847 3.111573
29 1.465258 1.027106 3.104941
30 1.456905 1.027412 3.101450
30 1.447190 1.027802 3.099879
30 1.444122 1.027930 3.099181
30 1.434961 1.028319 3.101799
30 1.425757 1.028685 3.103544
30 1.417362 1.029005 3.104592
30 1.409180 1.029308 3.107733
30 1.402019 1.029551 3.110002
30 1.395029 1.029771 3.113842
30 1.388634 1.029949 3.115936
30 1.381515 1.030132 3.118205
30 1.379042 1.030189 3.120125
30 1.371239 1.030357 3.127979
30 1.362754 1.030473 3.134960
30 1.353201 1.030536 3.136531
30 1.343350 1.030586 -3.140895
30 1.332817 1.030578 -3.137055
30 1.321899 1.030529 -3.135659
31 1.311451 1.030467 -3.131819
31 1.301686 1.030371 -3.126932
31 1.298530 1.030325 -3.126408
31 1.289405 1.030187 -3.125536
31 1.281133 1.030054 -3.122569
31 1.273159 1.029902 -3.116984
31 1.265272 1.029708 -3.114889
31 1.256746 1.029480 -3.111049
31 1.248136 1.029217 -3.106686
31 1.238376 1.028876 -3.100926
31 1.228234 1.028464 -3.098483
31 1.224613 1.028307 -3.096912
31 1.213493 1.027810 -3.090629
31 1.202207 1.027235 -3.087313
31 1.191774 1.026668 -3.084695
31 1.181257 1.026069 -3.081553
31 1.172062 1.025516 -3.080157
31 1.161932 1.024893 -3.078412
32 1.158569 1.024680 -3.077888
32 1.149206 1.024083 -3.074572
32 1.138271 1.023349 -3.068812
32 1.134741 1.023091 -3.067940
32 1.123513 1.022263 -3.064973
32 1.112457 1.021414 -3.062355
32 1.101234 1.020523 -3.060435
32 1.090097 1.019617 -3.059737
32 1.079047 1.018711 -3.056944
32 1.068551 1.017820 -3.051534
32 1.065323 1.017529 -3.050486
32 1.055342 1.016617 -3.048916
32 1.046170 1.015764 -3.046821
32 1.037679 1.014957 -3.045600
32 1.029784 1.014197 -3.041411
32 1.022146 1.013429 -3.041236
32 1.014339 1.012643 -3.040364
32 1.005938 1.011790 -3.033731
33 0.996526 1.010770 -3.031637
33 0.993262 1.010410 -3.030939
33 0.982877 1.009256 -3.024656
33 0.972373 1.008022 -3.022038
33 0.961449 1.006710 -3.019071
33 0.950275 1.005334 -3.015231
33 0.939825 1.004007 -3.013835
33 0.936442 1.003572 -3.013311
33 0.929167 1.002634 -3.012787
33 0.920920 1.001565 -3.011915
33 0.912124 1.000418 -3.011915
33 0.909544 1.000082 -3.012787
33 0.902693 0.999195 -3.013485
33 0.895418 0.998257 -3.015231
33 0.888353 0.997360 -3.018023
33 0.880608 0.996398 -3.022038
33 0.872097 0.995376 -3.025354
33 0.869217 0.995039 -3.026401
33 0.860321 0.994010 -3.024132
33 0.850791 0.992885 -3.017500
34 0.847321 0.992453 -3.017500
34 0.836445 0.991096 -3.016802
34 0.832806 0.990640 -3.014882
34 0.822315 0.989303 -3.008249
34 0.818849 0.988838 -3.007377
34 0.808326 0.987417 -3.006504
34 0.798311 0.986056 -3.005108
34 0.788255 0.984675 -3.003537
34 0.777780 0.983219 -3.001094
34 0.774064 0.982694 -3.000046
34 0.763213 0.981148 -2.996905
34 0.751777 0.979481 -2.993589
34 0.748234 0.978953 -2.993240
34 0.737015 0.977276 -2.992018
34 0.725882 0.975599 -2.991145
34 0.714413 0.973860 -2.990098
34 0.704000 0.972270 -2.989225
34 0.693799 0.970704 -2.989225
34 0.684568 0.969286 -2.988353
34 0.681449 0.968805 -2.988004
34 0.673358 0.967552 -2.987480
35 0.664213 0.966132 -2.986258
35 0.655576 0.964779 -2.983466
35 0.645679 0.963201 -2.981197
35 0.635954 0.961628 -2.978753
35 0.624971 0.959823 -2.975437
35 0.614162 0.958010 -2.973867
35 0.602641 0.956060 -2.967932
35 0.599029 0.955426 -2.967060
35 0.587647 0.953419 -2.966362
35 0.577065 0.951546 -2.965489
35 0.566400 0.949648 -2.964616
35 0.556997 0.947966 -2.963395
35 0.547511 0.946258 -2.962347
35 0.538909 0.944699 -2.961824
35 0.530727 0.943212 -2.960777
35 0.522756 0.941755 -2.959031
35 0.519947 0.941236 -2.958333
35 0.511979 0.939760 -2.957111
36 0.502631 0.938015 -2.953446
36 0.492953 0.936173 -2.950305
36 0.482863 0.934218 -2.949956
36 0.471978 0.932107 -2.948559
36 0.468211 0.931370 -2.948210
36 0.457414 0.929256 -2.946465
36 0.445909 0.926982 -2.944196
36 0.442187 0.926238 -2.943498
36 0.430856 0.923963 -2.942451
36 0.416016 0.920968 -2.941578
36 0.412296 0.920214 -2.940531
36 0.401348 0.917983 -2.937389
36 0.390156 0.915665 -2.935644
36 0.378927 0.913319 -2.933200
36 0.367912 0.910990 -2.931455
36 0.364241 0.910207 -2.930931
36 0.354107 0.908040 -2.929710
36 0.343851 0.905834 -2.926568
36 0.340976 0.905206 -2.925346
36 0.330771 0.902964 -2.918016
37 0.321165 0.900780 -2.907893
37 0.310794 0.898311 -2.897596
37 0.299703 0.895550 -2.891662
37 0.288588 0.892712 -2.891487
37 0.277390 0.889852 -2.890440
37 0.273755 0.888919 -2.890265
37 0.262396 0.886003 -2.890091
37 0.251409 0.883180 -2.889393
37 0.240713 0.880423 -2.888345
37 0.230639 0.877816 -2.887298
37 0.221064 0.875327 -2.881539
37 0.217560 0.874395 -2.877524
37 0.207351 0.871635 -2.869670
37 0.196465 0.868599 -2.862864
37 0.193021 0.867614 -2.861816
37 0.181790 0.864387 -2.857802
37 0.170654 0.861139 -2.857104
37 0.166971 0.860062 -2.856231
37 0.156454 0.856977 -2.854835
38 0.146064 0.853913 -2.853090
38 0.142630 0.852894 -2.852217
38 0.133842 0.850277 -2.847330
38 0.130536 0.849275 -2.844363
38 0.122422 0.846790 -2.833368
38 0.113563 0.843970 -2.818183
38 0.110611 0.842980 -2.812773
38 0.102539 0.840226 -2.798286
38 0.099608 0.839178 -2.793749
38 0.089665 0.835573 -2.779088
38 0.086475 0.834363 -2.776121
38 0.076119 0.830400 -2.771932
38 0.065462 0.826271 -2.770012
38 0.054972 0.822183 -2.768790
38 0.051795 0.820941 -2.768790
38 0.042024 0.817119 -2.766521
38 0.033215 0.813651 -2.761111
38 0.030285 0.812479 -2.757620
38 0.022495 0.809332 -2.746799
38 0.019661 0.808151 -2.743134
38 0.012390 0.805090 -2.727077
38 0.002299 0.800597 -2.704039
39 -0.004731 0.797308 -2.683444
39 -0.012993 0.793234 -2.665292
39 -0.015759 0.791807 -2.657264
39 -0.024628 0.787140 -2.645396
39 -0.033779 0.782186 -2.638589
39 -0.043083 0.777068 -2.629688
39 -0.046094 0.775376 -2.627593
39 -0.054821 0.770448 -2.623055
39 -0.063674 0.765397 -2.617296
39 -0.072866 0.760081 -2.604729
39 -0.082394 0.754410 -2.597050
39 -0.091988 0.748600 -2.592687
39 -0.095553 0.746419 -2.591639
39 -0.105334 0.740424 -2.591290
39 -0.115330 0.734291 -2.590069
39 -0.125101 0.728280 -2.589894
39 -0.128369 0.726268 -2.589370
39 -0.138063 0.720295 -2.587451
39 -0.141472 0.718185 -2.587102
39 -0.151044 0.712258 -2.585531
40 -0.161113 0.706000 -2.584833
40 -0.164372 0.703971 -2.584658
40 -0.174255 0.697817 -2.583611
40 -0.177583 0.695740 -2.583087
40 -0.187529 0.689525 -2.582564
40 -0.197399 0.683351 -2.581516
40 -0.200651 0.681312 -2.581167
40 -0.209790 0.675577 -2.579422
40 -0.212893 0.673622 -2.578899
40 -0.221694 0.668071 -2.575233
40 -0.229827 0.662899 -2.570521
40 -0.237182 0.658174 -2.556733
40 -0.239422 0.656690 -2.551846
40 -0.246405 0.652018 -2.538756
40 -0.248266 0.650736 -2.531076
40 -0.254696 0.646238 -2.514670
40 -0.259842 0.642510 -2.491108
40 -0.264932 0.638636 -2.468594
40 -0.266266 0.637573 -2.460740
40 -0.268718 0.635587 -2.429498
40 -0.270429 0.634110 -2.393021
41 -0.271523 0.633094 -2.340487
41 -0.273096 0.631471 -2.293014
41 -0.274731 0.629615 -2.239083
41 -0.275524 0.628611 -2.224597
41 -0.277702 0.625767 -2.185501
41 -0.278539 0.624582 -2.173109
41 -0.280786 0.621314 -2.129302
41 -0.281509 0.620157 -2.118132
41 -0.283861 0.616297 -2.084272
41 -0.286124 0.612285 -2.042035
41 -0.288157 0.608295 -2.005383
41 -0.288785 0.606941 -1.987755
41 -0.290529 0.603003 -1.953023
41 -0.292152 0.598967 -1.917244
41 -0.293672 0.594755 -1.876578
41 -0.294122 0.593332 -1.864710
41 -0.295703 0.588107 -1.823869
41 -0.297123 0.582616 -1.789137
41 -0.298453 0.576621 -1.752311
41 -0.299724 0.569700 -1.723687
42 -0.300867 0.562282 -1.696809
42 -0.301178 0.559828 -1.685115
42 -0.302136 0.551482 -1.662775
42 -0.302829 0.543965 -1.641133
42 -0.302976 0.541881 -1.636072
42 -0.303457 0.534519 -1.618967
42 -0.303716 0.529151 -1.601340
42 -0.303773 0.527276 -1.594882
42 -0.303924 0.521009 -1.572891
42 -0.303938 0.514569 -1.546362
42 -0.303755 0.507066 -1.527512
42 -0.303400 0.498885 -1.511804
42 -0.303229 0.495990 -1.507964
42 -0.302688 0.487393 -1.498714
42 -0.302000 0.477865 -1.487370
42 -0.301748 0.474848 -1.484577
42 -0.300896 0.464991 -1.475501
42 -0.299987 0.455481 -1.466077
42 -0.299033 0.446405 -1.452463
42 -0.298026 0.437935 -1.436406
43 -0.297038 0.430624 -1.417382
43 -0.296647 0.428095 -1.406386
43 -0.295600 0.421785 -1.384221
43 -0.294381 0.415331 -1.355074
43 -0.293989 0.413540 -1.345649
43 -0.292513 0.407097 -1.318596
43 -0.291981 0.405032 -1.308299
43 -0.290233 0.398525 -1.274614
43 -0.289473 0.396036 -1.264666
43 -0.286954 0.388066 -1.241627
43 -0.284156 0.379874 -1.220509
43 -0.280951 0.371102 -1.206546
43 -0.277791 0.362813 -1.190664
43 -0.276699 0.360081 -1.186998
43 -0.273633 0.352488 -1.174083
43 -0.272611 0.350050 -1.166054
43 -0.269790 0.343464 -1.147205
43 -0.266775 0.336777 -1.119978
43 -0.263635 0.330290 -1.091005
43 -0.259954 0.323216 -1.063953
43 -0.255751 0.315647 -1.042311
44 -0.250591 0.306808 -1.025555
44 -0.245305 0.298094 -1.013862
44 -0.239759 0.289188 -1.003390
44 -0.233754 0.279766 -0.992394
44 -0.227879 0.270767 -0.985762
44 -0.221850 0.261665 -0.980002
44 -0.215816 0.252669 -0.973719
44 -0.209798 0.243817 -0.964818
44 -0.203702 0.235019 -0.956964
44 -0.197413 0.226095 -0.948063
44 -0.195299 0.223150 -0.945968
44 -0.188838 0.214192 -0.940209
44 -0.186650 0.211195 -0.937591
44 -0.180240 0.202463 -0.932704
44 -0.178056 0.199517 -0.931133
44 -0.171539 0.190758 -0.925374
44 -0.169358 0.187862 -0.922930
44 -0.162796 0.179191 -0.916123
44 -0.156018 0.170362 -0.909317
44 -0.153765 0.167468 -0.907222
45 -0.147041 0.158867 -0.901637
45 -0.144713 0.155923 -0.899194
45 -0.137893 0.147344 -0.894481
45 -0.130926 0.138663 -0.890642
45 -0.128566 0.135745 -0.888896
45 -0.121604 0.127170 -0.883137
45 -0.119250 0.124303 -0.881042
45 -0.112139 0.115684 -0.873537
45 -0.105458 0.107707 -0.866905
45 -0.098779 0.099839 -0.857131
45 -0.096573 0.097292 -0.853466
45 -0.090742 0.090608 -0.843518
45 -0.084816 0.083950 -0.827984
45 -0.079653 0.078327 -0.811927
45 -0.074547 0.072943 -0.788191
45 -0.073164 0.071552 -0.780686
45 -0.068195 0.066630 -0.755553
45 -0.064036 0.062712 -0.726930
45 -0.059861 0.058999 -0.697434
45 -0.056364 0.056068 -0.662702
46 -0.053170 0.053576 -0.628144
46 -0.050099 0.051345 -0.585907
46 -0.047114 0.049364 -0.551000
46 -0.044716 0.047891 -0.506844
46 -0.043933 0.047456 -0.493754
46 -0.042205 0.046526 -0.452389
46 -0.040978 0.045930 -0.399157
46 -0.040624 0.045781 -0.382925
46 -0.039438 0.045303 -0.328296
46 -0.038227 0.044890 -0.284489
46 -0.036794 0.044471 -0.236667
46 -0.035302 0.044111 -0.199317
46 -0.034048 0.043858 -0.163537
46 -0.032659 0.043629 -0.126362
46 -0.032321 0.043586 -0.116937
46 -0.030796 0.043407 -0.083252
46 -0.029563 0.043304 -0.057770
46 -0.028031 0.043215 -0.030718
46 -0.026880 0.043180 -0.011519
47 -0.025686 0.043166 0.009250
47 -0.024577 0.043176 0.026704
47 -0.023511 0.043205 0.041539
47 -0.022489 0.043247 0.054978
47 -0.022233 0.043261 0.056898
47 -0.022148 0.043266 0.064403
47 -0.022148 0.043266 0.068766
47 -0.022148 0.043266 0.067719
47 -0.022148 0.043266 0.067021
47 -0.022148 0.043266 0.066497
47 -0.022148 0.043266 0.066497
47 -0.022148 0.043266 0.066846
47 -0.022148 0.043266 0.066672
47 -0.022148 0.043266 0.066672
47 -0.022148 0.043266 0.066672
47 -0.022148 0.043266 0.066672
47 -0.022148 0.043266 0.066672
47 -0.022148 0.043266 0.066672
47 -0.022148 0.043266 0.066672
47 -0.022148 0.043266 0.066672
48 -0.022148 0.043266 0.066672
48 -0.022148 0.043266 0.066672
48 -0.022148 0.043266 0.066672
48 -0.022148 0.043266 0.066672
48 -0.022148 0.043266 0.066672
48 -0.022148 0.043266 0.066672
48 -0.022148 0.043266 0.066672
48 -0.022148 0.043266 0.066672
48 -0.022148 0.043266 0.066672
48 -0.022148 0.043266 0.066672
48 -0.022148 0.043266 0.066672
48 -0.022148 0.043266 0.066672
48 -0.022148 0.043266 0.066672
48 -0.022148 0.043266 0.066672
48 -0.022148 0.043266 0.066672
48 -0.022148 0.043266 0.066672
48 -0.022148 0.043266 0.066672
48 -0.022148 0.043266 0.066672
49 -0.022148 0.043266 0.066672
49 -0.022148 0.043266 0.066672
49 -0.022148 0.043266 0.066672
49 -0.022148 0.043266 0.066672
49 -0.022148 0.043266 0.066672
49 -0.022148 0.043266 0.066672
49 -0.022148 0.043266 0.066672
49 -0.022148 0.043266 0.066672
49 -0.022148 0.043266 0.066672
49 -0.022148 0.043266 0.066672
49 -0.022148 0.043266 0.066672
49 -0.022148 0.043266 0.066672
49 -0.022148 0.043266 0.066672
49 -0.022148 0.043266 0.066672
49 -0.022148 0.043266 0.066672
49 -0.022148 0.043266 0.066672
49 -0.022148 0.043266 0.066672
49 -0.022148 0.043266 0.066672
49 -0.022148 0.043266 0.066672
49 -0.022148 0.043266 0.066672
49 -0.022148 0.043266 0.066672
50 -0.022148 0.043266 0.066672
50 -0.022148 0.043266 0.066672
50 -0.022148 0.043266 0.066672
50 -0.022148 0.043266 0.066672
50 -0.022148 0.043266 0.066672
50 -0.022148 0.043266 0.066672
50 -0.022148 0.043266 0.066672
50 -0.022148 0.043266 0.066672
50 -0.022148 0.043266 0.066672
